<svg viewBox="0 0 22 22" xmlns="http://www.w3.org/2000/svg">
    <path
        d="M19.9375 8.75C19.9375 8.38533 19.7926 8.03559 19.5348 7.77773C19.2769 7.51987 18.9272 7.375 18.5625 7.375H15.8125V4.625C15.8125 4.26033 15.6676 3.91059 15.4098 3.65273C15.1519 3.39487 14.8022 3.25 14.4375 3.25H3.4375C3.07283 3.25 2.72309 3.39487 2.46523 3.65273C2.20737 3.91059 2.0625 4.26033 2.0625 4.625V15.625C2.0629 15.7543 2.09979 15.8809 2.16891 15.9903C2.23803 16.0996 2.33659 16.1872 2.45327 16.243C2.56995 16.2988 2.7 16.3206 2.8285 16.3059C2.957 16.2911 3.07872 16.2404 3.17969 16.1595L6.1875 13.7344V16.3125C6.1875 16.6772 6.33237 17.0269 6.59023 17.2848C6.84809 17.5426 7.19783 17.6875 7.5625 17.6875H15.6054L18.8203 20.2845C18.942 20.3829 19.0935 20.4369 19.25 20.4375C19.4323 20.4375 19.6072 20.3651 19.7361 20.2361C19.8651 20.1072 19.9375 19.9323 19.9375 19.75V8.75ZM16.2809 16.4655C16.1592 16.3671 16.0076 16.3131 15.8512 16.3125H7.5625V13.5625H14.4375C14.8022 13.5625 15.1519 13.4176 15.4098 13.1598C15.6676 12.9019 15.8125 12.5522 15.8125 12.1875V8.75H18.5625V18.3105L16.2809 16.4655Z" />
</svg>