<svg viewBox="0 0 24 24" xmlns="http://www.w3.org/2000/svg">
    <path
        d="M19.4964 13.9829L21.4624 17.3889C21.5433 17.5291 21.589 17.6869 21.5955 17.8487C21.6021 18.0105 21.5693 18.1714 21.5 18.3177C21.4306 18.464 21.3269 18.5913 21.1975 18.6887C21.0682 18.7861 20.9172 18.8507 20.7574 18.8769L20.6444 18.8879L20.5324 18.8869L17.5994 18.6969L16.2964 21.3329C16.2257 21.4756 16.1219 21.5994 15.9937 21.694C15.8655 21.7885 15.7166 21.8511 15.5593 21.8766C15.402 21.902 15.241 21.8895 15.0895 21.8402C14.938 21.7909 14.8005 21.7061 14.6884 21.5929L14.6064 21.4989L14.5344 21.3889L12.5664 17.9819C13.9518 17.8953 15.2983 17.4892 16.5006 16.7955C17.7028 16.1017 18.7282 15.139 19.4964 13.9829Z" />
    <path
        d="M11.4296 17.9819L9.46362 21.3899C9.38395 21.528 9.27246 21.645 9.13843 21.7313C9.0044 21.8176 8.8517 21.8706 8.69304 21.886C8.53437 21.9014 8.37434 21.8786 8.22624 21.8196C8.07815 21.7607 7.94629 21.6672 7.84162 21.5469L7.76562 21.4469L7.70162 21.3329L6.39762 18.6979L3.46662 18.8879C3.30517 18.8983 3.1436 18.8694 2.99577 18.8037C2.84793 18.738 2.71823 18.6374 2.61776 18.5106C2.51729 18.3838 2.44906 18.2345 2.41891 18.0756C2.38875 17.9166 2.39758 17.7527 2.44462 17.5979L2.48462 17.4909L2.53462 17.3909L4.50262 13.9819C5.27029 15.138 6.29509 16.1008 7.49682 16.7949C8.69854 17.4891 10.0446 17.8947 11.4296 17.9819Z" />
    <path
        d="M12 2L12.24 2.004C14.0539 2.06623 15.7727 2.83056 17.0339 4.13577C18.2951 5.44098 19 7.18502 19 9L18.997 9.193L18.99 9.385L18.972 9.63L18.946 9.872L18.922 10.05C18.8562 10.4816 18.7501 10.9062 18.605 11.318L18.489 11.626L18.336 11.974C17.7699 13.18 16.8714 14.1994 15.7461 14.9125C14.6208 15.6257 13.3153 16.0029 11.9831 16C10.6508 15.9971 9.34708 15.614 8.22492 14.896C7.10276 14.1779 6.2088 13.1545 5.648 11.946L5.518 11.649L5.466 11.516L5.386 11.299L5.291 11.005C5.25707 10.8911 5.22606 10.7764 5.198 10.661L5.138 10.39L5.089 10.119L5.069 9.98L5.03 9.657L5.006 9.292L5 9C4.99997 7.18502 5.70489 5.44098 6.96607 4.13577C8.22726 2.83056 9.94609 2.06623 11.76 2.004L12 2Z" />
</svg>