<svg viewBox="0 0 22 22" xmlns="http://www.w3.org/2000/svg">
    <path fill-rule="evenodd" clip-rule="evenodd"
        d="M4.58333 4.41675C4.29602 4.41675 4.02047 4.53088 3.8173 4.73405C3.61414 4.93721 3.5 5.21276 3.5 5.50008V14.6667C3.5 14.9541 3.61414 15.2296 3.8173 15.4328C4.02047 15.6359 4.29602 15.7501 4.58333 15.7501H11C11.4142 15.7501 11.75 16.0859 11.75 16.5001C11.75 16.9143 11.4142 17.2501 11 17.2501H4.58333C3.89819 17.2501 3.24111 16.9779 2.75664 16.4934C2.27217 16.009 2 15.3519 2 14.6667V5.50008C2 4.81494 2.27217 4.15786 2.75664 3.67339C3.24111 3.18892 3.89819 2.91675 4.58333 2.91675H17.4167C18.1018 2.91675 18.7589 3.18892 19.2434 3.67339C19.7278 4.15786 20 4.81494 20 5.50008V12.3751C20 12.7893 19.6642 13.1251 19.25 13.1251C18.8358 13.1251 18.5 12.7893 18.5 12.3751V5.50008C18.5 5.21276 18.3859 4.93721 18.1827 4.73405C17.9795 4.53088 17.704 4.41675 17.4167 4.41675H4.58333Z" />
    <path fill-rule="evenodd" clip-rule="evenodd"
        d="M2.12604 5.08405C2.35581 4.73941 2.82146 4.64628 3.1661 4.87604L11.0001 10.0987L18.8341 4.87604C19.1787 4.64628 19.6444 4.73941 19.8741 5.08405C20.1039 5.4287 20.0108 5.89435 19.6661 6.12412L11.4161 11.6241C11.1642 11.7921 10.836 11.7921 10.5841 11.6241L2.33405 6.12412C1.98941 5.89435 1.89628 5.4287 2.12604 5.08405Z" />
    <path fill-rule="evenodd" clip-rule="evenodd"
        d="M13 16.5C13 16.0858 13.3358 15.75 13.75 15.75H19.25C19.6642 15.75 20 16.0858 20 16.5C20 16.9142 19.6642 17.25 19.25 17.25H13.75C13.3358 17.25 13 16.9142 13 16.5Z" />
    <path fill-rule="evenodd" clip-rule="evenodd"
        d="M15.9697 13.2197C16.2626 12.9268 16.7374 12.9268 17.0303 13.2197L19.7803 15.9697C20.0732 16.2626 20.0732 16.7374 19.7803 17.0303L17.0303 19.7803C16.7374 20.0732 16.2626 20.0732 15.9697 19.7803C15.6768 19.4874 15.6768 19.0126 15.9697 18.7197L18.1893 16.5L15.9697 14.2803C15.6768 13.9874 15.6768 13.5126 15.9697 13.2197Z" />
</svg>