<svg viewBox="0 0 297 70"  xmlns="http://www.w3.org/2000/svg">
    <path
        d="M60.3699 52.5003L55.7285 56.0007L51.085 59.5011L41.7962 66.4999L37.1527 70.0002L32.5073 66.4978L27.8639 62.9995L23.2204 59.499L13.9316 52.5003C12.7682 51.6242 12.1875 50.3121 12.1875 48.9999C12.1875 47.6878 12.7702 46.3756 13.9316 45.4995L23.2204 52.4983L27.8639 55.9987L32.5073 59.499L37.1507 62.9995L41.7962 59.499L46.4396 55.9987L51.083 52.5003L60.3719 45.5016C62.6966 47.2538 62.6967 50.7481 60.3699 52.5003Z"
        fill="#111010" />
    <path
        d="M74.2992 28.0007L72.2393 29.5533L69.6537 31.5031L65.0103 35.0015L60.3669 38.5019L55.7213 42.0003L51.0779 45.5027L46.4346 42.0003L41.7891 38.5019L46.4346 35.0015L51.0779 31.5031L55.7213 28.0027L60.3669 24.5024L65.0103 21.002L69.6537 24.5024L74.2992 28.0007Z"
        fill="#111010" />
    <path
        d="M41.7929 45.5011L46.4363 49.0015L41.7929 52.5018L37.1494 56.0002L32.506 52.5018L27.8626 49.0015L23.2191 45.5011L18.5757 42.0007L13.9323 38.5003L9.28686 34.9999L4.64343 31.4995L0 27.9991L4.64343 24.5007L9.28686 21.0003L13.9303 17.4999L18.5737 14.0016L23.2171 10.5012L27.8605 7.00079L32.506 3.50038L37.1494 0L41.7929 3.50038L46.4363 7.00079L41.7929 10.5012L37.1474 14.0016L32.5039 17.502L27.8605 21.0003L23.2171 24.4987C20.8903 26.2509 20.8903 29.7452 23.2171 31.4974L27.8605 27.9991L37.1494 21.0003L41.7929 17.4999L51.0817 10.5012L55.7252 14.0016L60.3665 17.4999L55.7231 21.0003L51.0796 24.5007L46.4363 28.0011L41.7929 31.4995L37.1494 34.9999L32.506 38.5003L37.1494 42.0007L41.7929 45.5011Z"
        fill="#111010" />
    <path
        d="M159.095 20.7358V26.9542H164.166V31.4346H159.095V37.6917H167.461V42.1701H153.875V16.2554H167.461V20.7358H159.095Z"
        fill="#111010" />
    <path
        d="M182.643 18.2175C181.284 16.9094 179.483 16.2554 177.238 16.2554H170.092V41.6791H170.086V42.1701H177.238C179.483 42.1701 181.284 41.5161 182.643 40.208C184 38.9 184.678 37.16 184.678 34.988V23.4375C184.678 21.2655 184 19.5255 182.643 18.2175ZM179.458 34.6559C179.434 35.5442 179.212 36.2594 178.792 36.8034C178.372 37.3454 177.83 37.6306 177.164 37.653L175.498 37.6917C175.373 37.6917 175.312 37.6306 175.312 37.5063V20.7358H177.125C177.843 20.7358 178.409 21.0068 178.829 21.5488C179.249 22.0928 179.458 22.8324 179.458 23.7716V34.6559Z"
        fill="#111010" />
    <path
        d="M192.509 16.2554H192.484L192.493 16.2656L192.495 16.2676L192.527 16.2656C192.521 16.2615 192.515 16.2594 192.509 16.2554Z"
        fill="#111010" />
    <path
        d="M202.298 16.2554V34.8026C202.298 37.1233 201.626 38.9815 200.281 40.3751C198.934 41.7708 197.163 42.4676 194.967 42.4676C192.746 42.4676 190.963 41.7708 189.619 40.3751C188.272 38.9815 187.602 37.1233 187.602 34.8026V16.2554H192.481L192.489 16.2656L192.492 16.2676L192.524 16.2656C192.518 16.2615 192.512 16.2594 192.506 16.2554H192.82V35.3222C192.82 36.1127 193.017 36.7525 193.412 37.2476C193.808 37.7406 194.325 37.9872 194.967 37.9872C195.609 37.9872 196.122 37.7406 196.503 37.2476C196.886 36.7525 197.078 36.1127 197.078 35.3222V16.2554H202.298Z"
        fill="#111010" />
    <path
        d="M214.513 23.8083V22.8446C214.513 22.1295 214.315 21.5488 213.922 21.1046C213.527 20.6604 212.995 20.4383 212.329 20.4383C211.687 20.4383 211.169 20.6604 210.774 21.1046C210.379 21.5488 210.181 22.1295 210.181 22.8446V35.6176C210.181 36.3348 210.379 36.9073 210.774 37.3393C211.169 37.7712 211.687 37.9872 212.329 37.9872C212.995 37.9872 213.527 37.7712 213.922 37.3393C214.315 36.9073 214.513 36.3348 214.513 35.6176V34.4929C214.617 34.281 214.763 34.173 214.957 34.173L219.288 34.3584H219.733V35.1734C219.733 37.3943 219.054 39.1669 217.697 40.4872C216.34 41.8075 214.549 42.4676 212.329 42.4676C210.108 42.4676 208.325 41.8075 206.98 40.4872C205.633 39.1669 204.961 37.3943 204.961 35.1734V23.1788C204.961 20.9824 205.633 19.2301 206.98 17.9221C208.325 16.614 210.108 15.96 212.329 15.96C214.574 15.96 216.371 16.614 217.716 17.9221C219.06 19.2301 219.733 20.9824 219.733 23.1788V24.0304H219.288L214.957 24.2158C214.661 24.2158 214.513 24.0793 214.513 23.8083Z"
        fill="#111010" />
    <path d="M237.852 41.7339L237.876 41.8541C237.878 41.85 237.878 41.8439 237.878 41.8378L237.852 41.7339Z"
        fill="#111010" />
    <path
        d="M237.848 41.7341L237.398 39.6538V39.662L232.432 16.6629L232.406 16.5651L232.326 16.2554H226.566L226.471 16.6629L221.414 39.9187L221.411 39.9309L221.028 41.6893C220.955 42.0112 221.077 42.1701 221.399 42.1701H225.731C226.026 42.1701 226.187 42.0357 226.212 41.7626L226.805 38.2093C226.805 38.087 226.878 38.0239 227.027 38.0239H231.727C231.876 38.0239 231.949 38.087 231.949 38.2093L232.542 41.7626C232.567 42.0357 232.728 42.1701 233.023 42.1701H237.467C237.732 42.1701 237.866 42.0662 237.872 41.8543L237.848 41.7341ZM231.024 33.9896H227.693C227.593 33.9896 227.544 33.9285 227.544 33.8042C227.544 33.8042 229.272 23.5863 229.321 23.5863C229.37 23.5863 231.173 33.8042 231.173 33.8042C231.197 33.9285 231.149 33.9896 231.024 33.9896Z"
        fill="#111010" />
    <path
        d="M251.87 16.2554V20.7358H246.614V42.1701H241.394V20.7358H236.644C236.642 20.7358 236.642 20.7358 236.64 20.7338H236.32V16.2554H251.87Z"
        fill="#111010" />
    <path
        d="M264.567 40.4659C263.21 39.1334 262.531 37.3567 262.531 35.1338V23.2879C262.531 21.067 263.21 19.2904 264.567 17.9558C265.924 16.6233 267.737 15.957 270.009 15.957C272.279 15.957 274.1 16.6233 275.469 17.9558C276.838 19.2883 277.523 21.065 277.523 23.2879V35.1338C277.523 37.3547 276.838 39.1314 275.469 40.4659C274.1 41.7984 272.279 42.4647 270.009 42.4647C267.739 42.4647 265.924 41.7984 264.567 40.4659ZM271.675 37.263C272.095 36.7822 272.305 36.1464 272.305 35.3559V23.0638C272.305 22.2732 272.095 21.6375 271.675 21.1567C271.256 20.6758 270.7 20.4354 270.009 20.4354C269.318 20.4354 268.768 20.6758 268.36 21.1567C267.953 21.6375 267.749 22.2732 267.749 23.0638V35.3559C267.749 36.1464 267.953 36.7822 268.36 37.263C268.768 37.7439 269.316 37.9843 270.009 37.9843C270.7 37.9863 271.256 37.7459 271.675 37.263Z"
        fill="#111010" />
    <path
        d="M296.184 16.2554V42.1701H290.854C290.606 42.1701 290.447 42.0458 290.371 41.7993L285.781 27.4717C285.756 27.3984 285.714 27.3678 285.652 27.38C285.589 27.3923 285.559 27.4351 285.559 27.5084L285.595 41.7259V42.1701H280.414V16.2554H285.707C285.954 16.2554 286.115 16.3776 286.188 16.6242L290.815 30.9517C290.84 31.0271 290.885 31.0577 290.946 31.0455C291.007 31.0333 291.037 30.9884 291.037 30.9151L291.001 16.7362V16.2554H296.184Z"
        fill="#111010" />
    <path d="M259.603 16.2554H254.383V42.1701H259.603V16.2554Z" fill="#111010" />
    <path d="M192.527 16.2656L192.494 16.2677L192.492 16.2656H192.527Z" fill="#111010" />
    <path
        d="M192.527 16.2656L192.495 16.2676L192.493 16.2656L192.484 16.2554H192.509C192.515 16.2594 192.521 16.2615 192.527 16.2656Z"
        fill="#111010" />
    <path d="M221.401 42.1699H220.914L221.413 39.9307L221.03 41.689C220.957 42.0109 221.079 42.1699 221.401 42.1699Z"
        fill="#111010" />
    <path d="M237.943 42.1698H237.469C237.734 42.1698 237.868 42.0659 237.874 41.854L237.943 42.1698Z" fill="#111010" />
    <path d="M111.719 41.7402L111.743 41.8482V41.838L111.719 41.7402Z" fill="#BC1111" />
    <path
        d="M111.737 41.8482L111.713 41.7402L111.469 40.6135L106.295 16.6629L106.263 16.5467L106.181 16.2554H100.45L100.368 16.5467L100.336 16.6629L95.1646 40.4423L94.7734 42.1701H99.5961C99.8916 42.1701 100.053 42.0357 100.077 41.7626L100.668 38.2093C100.668 38.087 100.743 38.0239 100.892 38.0239H105.592C105.741 38.0239 105.815 38.087 105.815 38.2093L106.407 41.7626C106.432 42.0357 106.593 42.1701 106.888 42.1701H111.807L111.737 41.8482ZM104.89 33.9896H101.558C101.458 33.9896 101.409 33.9285 101.409 33.8042C101.409 33.8042 103.137 23.5863 103.186 23.5863C103.235 23.5863 105.038 33.8042 105.038 33.8042C105.063 33.9285 105.012 33.9896 104.89 33.9896Z"
        fill="#BC1111" />
    <path
        d="M126.847 35.3588C126.847 37.5308 126.18 39.2586 124.848 40.5422C123.515 41.8258 121.761 42.4676 119.591 42.4676C118.159 42.4676 116.9 42.1824 115.814 41.616C114.728 41.0475 113.888 40.2529 113.297 39.228C112.704 38.2032 112.409 37.0255 112.409 35.6909V34.173H117.554V35.4322C117.554 36.1983 117.751 36.8156 118.146 37.2843C118.542 37.7529 119.035 37.9872 119.628 37.9872C120.219 37.9872 120.714 37.7651 121.109 37.3209C121.502 36.8768 121.7 36.2961 121.7 35.5809C121.7 34.8413 121.453 34.2056 120.96 33.6738C120.465 33.1441 119.503 32.3597 118.073 31.3226C116.838 30.4342 115.838 29.6457 115.074 28.953C114.308 28.2623 113.654 27.4127 113.112 26.4C112.568 25.3874 112.297 24.2158 112.297 22.8833C112.297 20.7847 112.951 19.1058 114.259 17.8467C115.567 16.5895 117.295 15.96 119.442 15.96C121.614 15.96 123.36 16.614 124.681 17.9221C126.001 19.2301 126.661 20.9457 126.661 23.0667V24.4013H121.514V22.9567C121.514 22.1926 121.323 21.5814 120.942 21.1229C120.559 20.6665 120.06 20.4383 119.442 20.4383C118.849 20.4383 118.369 20.6543 117.998 21.0863C117.629 21.5182 117.444 22.1172 117.444 22.8833C117.444 23.6229 117.678 24.277 118.146 24.8454C118.615 25.4118 119.54 26.2024 120.924 27.213C122.454 28.3499 123.607 29.2688 124.385 29.9717C125.162 30.6747 125.767 31.453 126.199 32.3046C126.631 33.1563 126.847 34.173 126.847 35.3588Z"
        fill="#BC1111" />
    <path d="M143.946 16.2554V20.7419H138.69V42.1701H133.47V20.7419H128.398V16.2554H143.946Z" fill="#BC1111" />
    <path
        d="M96.2289 16.671C96.2289 16.6792 96.2289 16.6894 96.2289 16.6996V20.7358H87.8997V26.9542H92.9344V31.4346H87.8997V42.1701H82.6797V16.2554H96.2289V16.671Z"
        fill="#BC1111" />
    <path d="M83.2656 46.0965V45.1896H89.597V46.0965H86.9425V53.6315H85.9202V46.0965H83.2656Z" fill="#111010" />
    <path
        d="M97.9462 49.4106C97.9462 50.3009 97.7854 51.0704 97.4639 51.7189C97.1424 52.3674 96.7013 52.8676 96.1407 53.2193C95.5801 53.5711 94.9398 53.7469 94.2199 53.7469C93.4999 53.7469 92.8596 53.5711 92.299 53.2193C91.7384 52.8676 91.2974 52.3674 90.9758 51.7189C90.6543 51.0704 90.4936 50.3009 90.4936 49.4106C90.4936 48.5202 90.6543 47.7508 90.9758 47.1022C91.2974 46.4537 91.7384 45.9536 92.299 45.6018C92.8596 45.2501 93.4999 45.0742 94.2199 45.0742C94.9398 45.0742 95.5801 45.2501 96.1407 45.6018C96.7013 45.9536 97.1424 46.4537 97.4639 47.1022C97.7854 47.7508 97.9462 48.5202 97.9462 49.4106ZM96.9569 49.4106C96.9569 48.6796 96.8346 48.0627 96.59 47.5598C96.3482 47.0569 96.0198 46.6763 95.6049 46.418C95.1927 46.1597 94.731 46.0305 94.2199 46.0305C93.7087 46.0305 93.2457 46.1597 92.8308 46.418C92.4186 46.6763 92.0902 47.0569 91.8456 47.5598C91.6038 48.0627 91.4829 48.6796 91.4829 49.4106C91.4829 50.1415 91.6038 50.7585 91.8456 51.2614C92.0902 51.7642 92.4186 52.1448 92.8308 52.4032C93.2457 52.6615 93.7087 52.7906 94.2199 52.7906C94.731 52.7906 95.1927 52.6615 95.6049 52.4032C96.0198 52.1448 96.3482 51.7642 96.59 51.2614C96.8346 50.7585 96.9569 50.1415 96.9569 49.4106Z"
        fill="#111010" />
    <path
        d="M102.27 53.6315H99.665V45.1896H102.386C103.204 45.1896 103.905 45.3586 104.488 45.6966C105.07 46.0319 105.517 46.5142 105.827 47.1435C106.138 47.77 106.293 48.5202 106.293 49.3941C106.293 50.2734 106.137 51.0305 105.823 51.6653C105.51 52.2974 105.054 52.7838 104.455 53.1245C103.856 53.4625 103.128 53.6315 102.27 53.6315ZM100.687 52.7247H102.204C102.902 52.7247 103.481 52.59 103.94 52.3207C104.398 52.0514 104.741 51.6681 104.966 51.1707C105.191 50.6733 105.304 50.0811 105.304 49.3941C105.304 48.7126 105.193 48.1259 104.97 47.634C104.747 47.1393 104.415 46.7601 103.973 46.4963C103.53 46.2298 102.979 46.0965 102.32 46.0965H100.687V52.7247Z"
        fill="#111010" />
    <path
        d="M107.957 53.6315H106.886L109.986 45.1896H111.041L114.141 53.6315H113.069L110.546 46.5252H110.48L107.957 53.6315ZM108.353 50.3339H112.673V51.2407H108.353V50.3339Z"
        fill="#111010" />
    <path
        d="M113.868 45.1896H115.039L117.38 49.1303H117.479L119.821 45.1896H120.991L117.941 50.1525V53.6315H116.919V50.1525L113.868 45.1896Z"
        fill="#111010" />
    <path d="M126.6 45.1896V53.6315H125.578V45.1896H126.6Z" fill="#111010" />
    <path
        d="M133.267 47.3001C133.217 46.8824 133.017 46.5581 132.665 46.3273C132.313 46.0965 131.882 45.9811 131.371 45.9811C130.997 45.9811 130.67 46.0415 130.389 46.1624C130.112 46.2833 129.895 46.4496 129.738 46.6612C129.584 46.8728 129.507 47.1132 129.507 47.3825C129.507 47.6079 129.561 47.8016 129.668 47.9637C129.778 48.1231 129.918 48.2564 130.089 48.3636C130.259 48.468 130.438 48.5546 130.624 48.6233C130.811 48.6892 130.983 48.7428 131.14 48.784L131.997 49.0149C132.217 49.0726 132.461 49.1523 132.731 49.2539C133.003 49.3556 133.263 49.4944 133.51 49.6703C133.76 49.8434 133.966 50.066 134.128 50.338C134.29 50.6101 134.371 50.944 134.371 51.3397C134.371 51.7958 134.252 52.208 134.013 52.5763C133.776 52.9445 133.43 53.2372 132.974 53.4543C132.521 53.6714 131.97 53.7799 131.321 53.7799C130.716 53.7799 130.193 53.6824 129.751 53.4872C129.311 53.2921 128.965 53.0201 128.712 52.6711C128.462 52.3221 128.32 51.9168 128.287 51.4551H129.342C129.37 51.7739 129.477 52.0377 129.664 52.2465C129.854 52.4526 130.093 52.6065 130.381 52.7082C130.673 52.8071 130.986 52.8566 131.321 52.8566C131.711 52.8566 132.062 52.7934 132.372 52.667C132.683 52.5378 132.929 52.3592 133.11 52.1311C133.291 51.9003 133.382 51.631 133.382 51.3232C133.382 51.0429 133.304 50.8148 133.147 50.6389C132.99 50.4631 132.784 50.3202 132.529 50.2102C132.273 50.1003 131.997 50.0041 131.7 49.9217L130.662 49.6249C130.002 49.4353 129.48 49.1646 129.095 48.8129C128.71 48.4611 128.518 48.0008 128.518 47.432C128.518 46.9594 128.646 46.5472 128.901 46.1954C129.16 45.8409 129.506 45.5661 129.94 45.371C130.377 45.1731 130.865 45.0742 131.403 45.0742C131.948 45.0742 132.431 45.1718 132.854 45.3669C133.278 45.5592 133.613 45.8231 133.86 46.1583C134.11 46.4936 134.242 46.8742 134.256 47.3001H133.267Z"
        fill="#111010" />
    <path
        d="M138.591 45.1896H139.762L142.103 49.1303H142.202L144.543 45.1896H145.714L142.664 50.1525V53.6315H141.642V50.1525L138.591 45.1896Z"
        fill="#111010" />
    <path
        d="M153.762 49.4106C153.762 50.3009 153.602 51.0704 153.28 51.7189C152.959 52.3674 152.517 52.8676 151.957 53.2193C151.396 53.5711 150.756 53.7469 150.036 53.7469C149.316 53.7469 148.676 53.5711 148.115 53.2193C147.555 52.8676 147.114 52.3674 146.792 51.7189C146.47 51.0704 146.31 50.3009 146.31 49.4106C146.31 48.5202 146.47 47.7508 146.792 47.1022C147.114 46.4537 147.555 45.9536 148.115 45.6018C148.676 45.2501 149.316 45.0742 150.036 45.0742C150.756 45.0742 151.396 45.2501 151.957 45.6018C152.517 45.9536 152.959 46.4537 153.28 47.1022C153.602 47.7508 153.762 48.5202 153.762 49.4106ZM152.773 49.4106C152.773 48.6796 152.651 48.0627 152.406 47.5598C152.164 47.0569 151.836 46.6763 151.421 46.418C151.009 46.1597 150.547 46.0305 150.036 46.0305C149.525 46.0305 149.062 46.1597 148.647 46.418C148.235 46.6763 147.906 47.0569 147.662 47.5598C147.42 48.0627 147.299 48.6796 147.299 49.4106C147.299 50.1415 147.42 50.7585 147.662 51.2614C147.906 51.7642 148.235 52.1448 148.647 52.4032C149.062 52.6615 149.525 52.7906 150.036 52.7906C150.547 52.7906 151.009 52.6615 151.421 52.4032C151.836 52.1448 152.164 51.7642 152.406 51.2614C152.651 50.7585 152.773 50.1415 152.773 49.4106Z"
        fill="#111010" />
    <path
        d="M161.021 45.1896H162.043V50.7791C162.043 51.3562 161.907 51.8714 161.635 52.3248C161.366 52.7755 160.985 53.1314 160.494 53.3924C160.002 53.6507 159.425 53.7799 158.762 53.7799C158.1 53.7799 157.523 53.6507 157.031 53.3924C156.539 53.1314 156.157 52.7755 155.885 52.3248C155.616 51.8714 155.481 51.3562 155.481 50.7791V45.1896H156.503V50.6966C156.503 51.1088 156.594 51.4757 156.776 51.7972C156.957 52.116 157.215 52.3674 157.55 52.5515C157.888 52.7329 158.292 52.8236 158.762 52.8236C159.232 52.8236 159.636 52.7329 159.974 52.5515C160.312 52.3674 160.571 52.116 160.749 51.7972C160.93 51.4757 161.021 51.1088 161.021 50.6966V45.1896Z"
        fill="#111010" />
    <path
        d="M164.085 53.6315V45.1896H166.937C167.597 45.1896 168.138 45.3023 168.561 45.5276C168.985 45.7502 169.298 46.0566 169.501 46.4468C169.705 46.8371 169.806 47.2809 169.806 47.7783C169.806 48.2756 169.705 48.7167 169.501 49.1014C169.298 49.4861 168.986 49.7884 168.565 50.0083C168.145 50.2254 167.608 50.3339 166.954 50.3339H164.645V49.4106H166.921C167.371 49.4106 167.734 49.3446 168.009 49.2127C168.287 49.0808 168.487 48.8939 168.611 48.6521C168.737 48.4076 168.8 48.1163 168.8 47.7783C168.8 47.4403 168.737 47.1448 168.611 46.892C168.484 46.6392 168.282 46.4441 168.005 46.3067C167.727 46.1666 167.36 46.0965 166.904 46.0965H165.107V53.6315H164.085ZM168.058 49.8393L170.136 53.6315H168.949L166.904 49.8393H168.058Z"
        fill="#111010" />
    <path d="M174.313 46.0965V45.1896H180.644V46.0965H177.989V53.6315H176.967V46.0965H174.313Z" fill="#111010" />
    <path
        d="M188.993 49.4106C188.993 50.3009 188.832 51.0704 188.511 51.7189C188.189 52.3674 187.748 52.8676 187.188 53.2193C186.627 53.5711 185.987 53.7469 185.267 53.7469C184.547 53.7469 183.907 53.5711 183.346 53.2193C182.785 52.8676 182.344 52.3674 182.023 51.7189C181.701 51.0704 181.541 50.3009 181.541 49.4106C181.541 48.5202 181.701 47.7508 182.023 47.1022C182.344 46.4537 182.785 45.9536 183.346 45.6018C183.907 45.2501 184.547 45.0742 185.267 45.0742C185.987 45.0742 186.627 45.2501 187.188 45.6018C187.748 45.9536 188.189 46.4537 188.511 47.1022C188.832 47.7508 188.993 48.5202 188.993 49.4106ZM188.004 49.4106C188.004 48.6796 187.882 48.0627 187.637 47.5598C187.395 47.0569 187.067 46.6763 186.652 46.418C186.24 46.1597 185.778 46.0305 185.267 46.0305C184.756 46.0305 184.293 46.1597 183.878 46.418C183.466 46.6763 183.137 47.0569 182.893 47.5598C182.651 48.0627 182.53 48.6796 182.53 49.4106C182.53 50.1415 182.651 50.7585 182.893 51.2614C183.137 51.7642 183.466 52.1448 183.878 52.4032C184.293 52.6615 184.756 52.7906 185.267 52.7906C185.778 52.7906 186.24 52.6615 186.652 52.4032C187.067 52.1448 187.395 51.7642 187.637 51.2614C187.882 50.7585 188.004 50.1415 188.004 49.4106Z"
        fill="#111010" />
    <path
        d="M190.712 45.1896H191.932L194.801 52.1971H194.9L197.769 45.1896H198.989V53.6315H198.033V47.2177H197.95L195.312 53.6315H194.389L191.751 47.2177H191.668V53.6315H190.712V45.1896Z"
        fill="#111010" />
    <path
        d="M208.162 49.4106C208.162 50.3009 208.001 51.0704 207.679 51.7189C207.358 52.3674 206.917 52.8676 206.356 53.2193C205.795 53.5711 205.155 53.7469 204.435 53.7469C203.715 53.7469 203.075 53.5711 202.514 53.2193C201.954 52.8676 201.513 52.3674 201.191 51.7189C200.87 51.0704 200.709 50.3009 200.709 49.4106C200.709 48.5202 200.87 47.7508 201.191 47.1022C201.513 46.4537 201.954 45.9536 202.514 45.6018C203.075 45.2501 203.715 45.0742 204.435 45.0742C205.155 45.0742 205.795 45.2501 206.356 45.6018C206.917 45.9536 207.358 46.4537 207.679 47.1022C208.001 47.7508 208.162 48.5202 208.162 49.4106ZM207.172 49.4106C207.172 48.6796 207.05 48.0627 206.805 47.5598C206.564 47.0569 206.235 46.6763 205.82 46.418C205.408 46.1597 204.946 46.0305 204.435 46.0305C203.924 46.0305 203.461 46.1597 203.046 46.418C202.634 46.6763 202.306 47.0569 202.061 47.5598C201.819 48.0627 201.698 48.6796 201.698 49.4106C201.698 50.1415 201.819 50.7585 202.061 51.2614C202.306 51.7642 202.634 52.1448 203.046 52.4032C203.461 52.6615 203.924 52.7906 204.435 52.7906C204.946 52.7906 205.408 52.6615 205.82 52.4032C206.235 52.1448 206.564 51.7642 206.805 51.2614C207.05 50.7585 207.172 50.1415 207.172 49.4106Z"
        fill="#111010" />
    <path
        d="M209.88 53.6315V45.1896H212.733C213.392 45.1896 213.934 45.3023 214.357 45.5276C214.78 45.7502 215.093 46.0566 215.297 46.4468C215.5 46.8371 215.602 47.2809 215.602 47.7783C215.602 48.2756 215.5 48.7167 215.297 49.1014C215.093 49.4861 214.781 49.7884 214.361 50.0083C213.941 50.2254 213.403 50.3339 212.749 50.3339H210.441V49.4106H212.716C213.167 49.4106 213.53 49.3446 213.805 49.2127C214.082 49.0808 214.283 48.8939 214.406 48.6521C214.533 48.4076 214.596 48.1163 214.596 47.7783C214.596 47.4403 214.533 47.1448 214.406 46.892C214.28 46.6392 214.078 46.4441 213.8 46.3067C213.523 46.1666 213.156 46.0965 212.7 46.0965H210.903V53.6315H209.88ZM213.854 49.8393L215.932 53.6315H214.744L212.7 49.8393H213.854Z"
        fill="#111010" />
    <path
        d="M217.305 53.6315V45.1896H220.158C220.817 45.1896 221.358 45.3023 221.782 45.5276C222.205 45.7502 222.518 46.0566 222.721 46.4468C222.925 46.8371 223.027 47.2809 223.027 47.7783C223.027 48.2756 222.925 48.7167 222.721 49.1014C222.518 49.4861 222.206 49.7884 221.786 50.0083C221.365 50.2254 220.828 50.3339 220.174 50.3339H217.866V49.4106H220.141C220.592 49.4106 220.955 49.3446 221.229 49.2127C221.507 49.0808 221.707 48.8939 221.831 48.6521C221.958 48.4076 222.021 48.1163 222.021 47.7783C222.021 47.4403 221.958 47.1448 221.831 46.892C221.705 46.6392 221.503 46.4441 221.225 46.3067C220.948 46.1666 220.581 46.0965 220.125 46.0965H218.327V53.6315H217.305ZM221.279 49.8393L223.356 53.6315H222.169L220.125 49.8393H221.279Z"
        fill="#111010" />
    <path
        d="M231.853 49.4106C231.853 50.3009 231.692 51.0704 231.37 51.7189C231.049 52.3674 230.608 52.8676 230.047 53.2193C229.487 53.5711 228.846 53.7469 228.126 53.7469C227.406 53.7469 226.766 53.5711 226.206 53.2193C225.645 52.8676 225.204 52.3674 224.882 51.7189C224.561 51.0704 224.4 50.3009 224.4 49.4106C224.4 48.5202 224.561 47.7508 224.882 47.1022C225.204 46.4537 225.645 45.9536 226.206 45.6018C226.766 45.2501 227.406 45.0742 228.126 45.0742C228.846 45.0742 229.487 45.2501 230.047 45.6018C230.608 45.9536 231.049 46.4537 231.37 47.1022C231.692 47.7508 231.853 48.5202 231.853 49.4106ZM230.863 49.4106C230.863 48.6796 230.741 48.0627 230.497 47.5598C230.255 47.0569 229.926 46.6763 229.511 46.418C229.099 46.1597 228.638 46.0305 228.126 46.0305C227.615 46.0305 227.152 46.1597 226.737 46.418C226.325 46.6763 225.997 47.0569 225.752 47.5598C225.51 48.0627 225.389 48.6796 225.389 49.4106C225.389 50.1415 225.51 50.7585 225.752 51.2614C225.997 51.7642 226.325 52.1448 226.737 52.4032C227.152 52.6615 227.615 52.7906 228.126 52.7906C228.638 52.7906 229.099 52.6615 229.511 52.4032C229.926 52.1448 230.255 51.7642 230.497 51.2614C230.741 50.7585 230.863 50.1415 230.863 49.4106Z"
        fill="#111010" />
    <path
        d="M235.105 53.6315L232.797 45.1896H233.835L235.6 52.0651H235.682L237.479 45.1896H238.633L240.431 52.0651H240.513L242.277 45.1896H243.316L241.008 53.6315H239.953L238.089 46.9044H238.023L236.16 53.6315H235.105Z"
        fill="#111010" />
</svg>