<svg xmlns="http://www.w3.org/2000/svg" width="30" height="30" viewBox="0 0 30 30" fill="none">
  <path fill-rule="evenodd" clip-rule="evenodd"
    d="M3.3335 5.99323V23.9727L9.32664 29.9656V11.9864H21.3127L15.3195 5.99323H3.3335Z" fill="white" />
  <path fill-rule="evenodd" clip-rule="evenodd"
    d="M9.32666 17.9794H21.3127V0L27.3058 5.99314V23.9726H15.3195L9.32666 17.9794Z" fill="white" />
</svg>