<svg viewBox="0 0 24 24" xmlns="http://www.w3.org/2000/svg">
    <path
        d="M14.624 19.5C14.624 19.6989 14.545 19.8897 14.4043 20.0303C14.2637 20.171 14.0729 20.25 13.874 20.25H11.249C11.0501 20.25 10.8593 20.171 10.7187 20.0303C10.578 19.8897 10.499 19.6989 10.499 19.5V14.25C10.499 14.0511 10.578 13.8603 10.7187 13.7197C10.8593 13.579 11.0501 13.5 11.249 13.5C11.4479 13.5 11.6387 13.579 11.7793 13.7197C11.92 13.8603 11.999 14.0511 11.999 14.25V18.75H13.874C14.0729 18.75 14.2637 18.829 14.4043 18.9697C14.545 19.1103 14.624 19.3011 14.624 19.5ZM8.68495 13.6397C8.6048 13.5824 8.51416 13.5415 8.41821 13.5193C8.32225 13.4971 8.22286 13.494 8.12571 13.5102C8.02855 13.5264 7.93554 13.5615 7.85198 13.6137C7.76842 13.6658 7.69594 13.7339 7.6387 13.8141L6.37401 15.585L5.10932 13.8141C5.05411 13.7291 4.98227 13.6562 4.89812 13.5998C4.81397 13.5434 4.71926 13.5046 4.61972 13.4858C4.52017 13.467 4.41784 13.4686 4.31891 13.4904C4.21998 13.5122 4.12649 13.5538 4.0441 13.6128C3.9617 13.6717 3.8921 13.7468 3.8395 13.8333C3.78689 13.9199 3.75238 14.0163 3.73803 14.1166C3.72368 14.2168 3.7298 14.319 3.75602 14.4169C3.78223 14.5147 3.82801 14.6063 3.89057 14.6859L5.45245 16.875L3.8887 19.0641C3.78346 19.226 3.74473 19.4223 3.78059 19.612C3.81644 19.8018 3.92411 19.9704 4.08118 20.0828C4.23824 20.1951 4.43259 20.2426 4.62376 20.2152C4.81493 20.1879 4.98819 20.0878 5.10745 19.9359L6.37401 18.165L7.6387 19.9359C7.75796 20.0878 7.93121 20.1879 8.12238 20.2152C8.31355 20.2426 8.5079 20.1951 8.66497 20.0828C8.82203 19.9704 8.9297 19.8018 8.96555 19.612C9.00141 19.4223 8.96268 19.226 8.85745 19.0641L7.29557 16.875L8.85932 14.6859C8.91657 14.6058 8.95747 14.5152 8.97969 14.4192C9.00191 14.3232 9.00502 14.2239 8.98882 14.1267C8.97263 14.0295 8.93746 13.9365 8.88532 13.853C8.83318 13.7694 8.7651 13.6969 8.68495 13.6397ZM17.9606 16.0603C17.5856 15.9516 17.1974 15.84 16.9809 15.7003C16.8637 15.6234 16.8656 15.6066 16.8759 15.5222C16.8773 15.454 16.8951 15.3872 16.9277 15.3273C16.9603 15.2674 17.0069 15.2163 17.0634 15.1781C17.4946 14.8856 18.5015 15.0169 18.9215 15.1256C19.114 15.1762 19.3186 15.1483 19.4905 15.048C19.6623 14.9477 19.7873 14.7832 19.8379 14.5908C19.8885 14.3983 19.8606 14.1937 19.7603 14.0218C19.66 13.8499 19.4955 13.725 19.3031 13.6744C19.1053 13.6228 17.3343 13.185 16.2253 13.9331C15.9914 14.0911 15.7951 14.2986 15.6501 14.5407C15.5051 14.7829 15.415 15.0539 15.3862 15.3347C15.1987 16.8234 16.6659 17.2481 17.5424 17.5012C18.6731 17.8284 18.7724 17.9625 18.7406 18.2128C18.7115 18.4387 18.6224 18.525 18.539 18.5812C18.1078 18.8681 17.1178 18.7266 16.7071 18.6141C16.5151 18.5607 16.3097 18.5859 16.1361 18.684C16.0502 18.7326 15.9747 18.7976 15.9139 18.8753C15.8531 18.9531 15.8082 19.0421 15.7818 19.1372C15.7554 19.2323 15.748 19.3317 15.76 19.4296C15.772 19.5276 15.8032 19.6223 15.8517 19.7082C15.9498 19.8817 16.1129 20.0092 16.3049 20.0625C16.7698 20.185 17.2483 20.248 17.729 20.25C18.2746 20.25 18.8821 20.1562 19.3687 19.8319C19.6087 19.6722 19.8104 19.4614 19.9592 19.2145C20.108 18.9676 20.2003 18.6909 20.2293 18.4041C20.4365 16.7812 18.8878 16.3284 17.9606 16.0603ZM3.74901 10.5V3.75C3.74901 3.35218 3.90704 2.97064 4.18835 2.68934C4.46965 2.40804 4.85118 2.25 5.24901 2.25H14.249C14.3475 2.24992 14.4451 2.26926 14.5361 2.3069C14.6272 2.34454 14.7099 2.39975 14.7796 2.46938L20.0296 7.71938C20.0993 7.78908 20.1545 7.87182 20.1921 7.96286C20.2298 8.05391 20.2491 8.15148 20.249 8.25V10.5C20.249 10.6989 20.17 10.8897 20.0293 11.0303C19.8887 11.171 19.6979 11.25 19.499 11.25C19.3001 11.25 19.1093 11.171 18.9687 11.0303C18.828 10.8897 18.749 10.6989 18.749 10.5V9H14.249C14.0501 9 13.8593 8.92098 13.7187 8.78033C13.578 8.63968 13.499 8.44891 13.499 8.25V3.75H5.24901V10.5C5.24901 10.6989 5.16999 10.8897 5.02934 11.0303C4.88869 11.171 4.69792 11.25 4.49901 11.25C4.3001 11.25 4.10933 11.171 3.96868 11.0303C3.82803 10.8897 3.74901 10.6989 3.74901 10.5ZM14.999 7.5H17.6878L14.999 4.81031V7.5Z" />
</svg>